{
	"date_modification": null,
	"date_réussite": null,
	"id": "jdoe/aHR0cHM6Ly9kZXBvdC5jb20vcm9nZXIvcXVlc3Rpb25zX3Byb2cvZm9uY3Rpb25zMDEvYXBwZWxlcl91bmVfZm9uY3Rpb24",
	"état": "début",
	"niveau": "Un peu plus haut, un peu plus loin",
	"titre": "Ginette Reno",
	"extra": null,
	"links": []
}
