{
  "data": {
    "type": "avancement",
    "id": "jdoe/aHR0cHM6Ly9kZXBvdC5jb20vcm9nZXIvcXVlc3Rpb25zX3Byb2cvZm9uY3Rpb25zMDEvYXBwZWxlcl91bmVfZm9uY3Rpb24",
    "attributes": {
	  "état": "réussi",
      "titre": "Titre",
      "niveau": "facile",
      "date_modification": 1614965818,
      "date_réussite": 1614965817,
      "extra": null
    },
    "links": {
		"question": "https://example.com/question/aHR0cHM6Ly9kZXBvdC5jb20vcm9nZXIvcXVlc3Rpb25zX3Byb2cvZm9uY3Rpb25zMDEvYXBwZWxlcl91bmVfZm9uY3Rpb24",
		"user": "https://example.com/user/jdoe",
		"self": "https://example.com/avancement/jdoe/aHR0cHM6Ly9kZXBvdC5jb20vcm9nZXIvcXVlc3Rpb25zX3Byb2cvZm9uY3Rpb25zMDEvYXBwZWxlcl91bmVfZm9uY3Rpb24",
		"soumettre": "https://example.com/avancement/jdoe/aHR0cHM6Ly9kZXBvdC5jb20vcm9nZXIvcXVlc3Rpb25zX3Byb2cvZm9uY3Rpb25zMDEvYXBwZWxlcl91bmVfZm9uY3Rpb24/tentatives"
    },
    "relationships": {
      "tentatives": {
        "data": [
          {
            "id": "jdoe/aHR0cHM6Ly9kZXBvdC5jb20vcm9nZXIvcXVlc3Rpb25zX3Byb2cvZm9uY3Rpb25zMDEvYXBwZWxlcl91bmVfZm9uY3Rpb24/1614965817",
            "type": "tentative"
          },
          {
            "id": "jdoe/aHR0cHM6Ly9kZXBvdC5jb20vcm9nZXIvcXVlc3Rpb25zX3Byb2cvZm9uY3Rpb25zMDEvYXBwZWxlcl91bmVfZm9uY3Rpb24/1614965818",
            "type": "tentative"
          }
        ],
        "links": {
          "self": "https://example.com/avancement/jdoe/aHR0cHM6Ly9kZXBvdC5jb20vcm9nZXIvcXVlc3Rpb25zX3Byb2cvZm9uY3Rpb25zMDEvYXBwZWxlcl91bmVfZm9uY3Rpb24/relationships/tentatives",
          "related": "https://example.com/avancement/jdoe/aHR0cHM6Ly9kZXBvdC5jb20vcm9nZXIvcXVlc3Rpb25zX3Byb2cvZm9uY3Rpb25zMDEvYXBwZWxlcl91bmVfZm9uY3Rpb24/tentatives"
        }
      },
      "sauvegardes": {
        "data": [
          {
            "id": "jdoe/aHR0cHM6Ly9kZXBvdC5jb20vcm9nZXIvcXVlc3Rpb25zX3Byb2cvZm9uY3Rpb25zMDEvYXBwZWxlcl91bmVfZm9uY3Rpb24/python",
            "type": "sauvegarde"
          },
          {
            "id": "jdoe/aHR0cHM6Ly9kZXBvdC5jb20vcm9nZXIvcXVlc3Rpb25zX3Byb2cvZm9uY3Rpb25zMDEvYXBwZWxlcl91bmVfZm9uY3Rpb24/java",
            "type": "sauvegarde"
          }
        ],
        "links": {
          "self": "https://example.com/avancement/jdoe/aHR0cHM6Ly9kZXBvdC5jb20vcm9nZXIvcXVlc3Rpb25zX3Byb2cvZm9uY3Rpb25zMDEvYXBwZWxlcl91bmVfZm9uY3Rpb24/relationships/sauvegardes",
          "related": "https://example.com/avancement/jdoe/aHR0cHM6Ly9kZXBvdC5jb20vcm9nZXIvcXVlc3Rpb25zX3Byb2cvZm9uY3Rpb25zMDEvYXBwZWxlcl91bmVfZm9uY3Rpb24/sauvegardes"
        }
      }
    }
  },
  "included": [
    {
      "attributes": {
        "créateur": "oteur",
        "date": 1614974921,
        "message": "Ceci est un commentaire",
        "numéro_ligne": 42
      },
      "id": "jdoe/aHR0cHM6Ly9kZXBvdC5jb20vcm9nZXIvcXVlc3Rpb25zX3Byb2cvZm9uY3Rpb25zMDEvYXBwZWxlcl91bmVfZm9uY3Rpb24/1614965817/0",
      "links": {
          "self": "https://example.com/commentaire/jdoe/aHR0cHM6Ly9kZXBvdC5jb20vcm9nZXIvcXVlc3Rpb25zX3Byb2cvZm9uY3Rpb25zMDEvYXBwZWxlcl91bmVfZm9uY3Rpb24/1614965817/0",
          "tentative": "https://example.com/tentative/jdoe/aHR0cHM6Ly9kZXBvdC5jb20vcm9nZXIvcXVlc3Rpb25zX3Byb2cvZm9uY3Rpb25zMDEvYXBwZWxlcl91bmVfZm9uY3Rpb24/1614965817",
          "auteur": "https://example.com/user/oteur"
      },
      "type": "commentaire"
    },
    {
      "attributes": {
        "créateur": "oteur",
        "date": 1614974922,
        "message": "Ceci est un autre commentaire",
        "numéro_ligne": 43
      },
      "id": "jdoe/aHR0cHM6Ly9kZXBvdC5jb20vcm9nZXIvcXVlc3Rpb25zX3Byb2cvZm9uY3Rpb25zMDEvYXBwZWxlcl91bmVfZm9uY3Rpb24/1614965817/1",
      "links": {
          "self": "https://example.com/commentaire/jdoe/aHR0cHM6Ly9kZXBvdC5jb20vcm9nZXIvcXVlc3Rpb25zX3Byb2cvZm9uY3Rpb25zMDEvYXBwZWxlcl91bmVfZm9uY3Rpb24/1614965817/1",
          "tentative": "https://example.com/tentative/jdoe/aHR0cHM6Ly9kZXBvdC5jb20vcm9nZXIvcXVlc3Rpb25zX3Byb2cvZm9uY3Rpb25zMDEvYXBwZWxlcl91bmVfZm9uY3Rpb24/1614965817",
          "auteur": "https://example.com/user/oteur"
      },
      "type": "commentaire"
    },
    {
      "attributes": {
        "créateur": "oteur",
        "date": 1614984921,
        "message": "Ceci est encore un autre commentaire",
        "numéro_ligne": 24
      },
      "id": "jdoe/aHR0cHM6Ly9kZXBvdC5jb20vcm9nZXIvcXVlc3Rpb25zX3Byb2cvZm9uY3Rpb25zMDEvYXBwZWxlcl91bmVfZm9uY3Rpb24/1614965818/0",
      "links": {
          "self": "https://example.com/commentaire/jdoe/aHR0cHM6Ly9kZXBvdC5jb20vcm9nZXIvcXVlc3Rpb25zX3Byb2cvZm9uY3Rpb25zMDEvYXBwZWxlcl91bmVfZm9uY3Rpb24/1614965818/0",
          "tentative": "https://example.com/tentative/jdoe/aHR0cHM6Ly9kZXBvdC5jb20vcm9nZXIvcXVlc3Rpb25zX3Byb2cvZm9uY3Rpb25zMDEvYXBwZWxlcl91bmVfZm9uY3Rpb24/1614965818",
          "auteur": "https://example.com/user/oteur"
      },
      "type": "commentaire"
    },
    {
      "type": "tentative",
      "attributes": {
        "code": "codeTest 1",
        "date_soumission": 1614965817,
        "feedback": "feedbackTest",
        "langage": "python",
        "réussi": true,
        "sous_type": "tentativeProg",
        "temps_exécution": null,
        "tests_réussis": 2,
        "publique": false
      },
      "id": "jdoe/aHR0cHM6Ly9kZXBvdC5jb20vcm9nZXIvcXVlc3Rpb25zX3Byb2cvZm9uY3Rpb25zMDEvYXBwZWxlcl91bmVfZm9uY3Rpb24/1614965817",
      "links": {
        "avancement": "https://example.com/avancement/jdoe/aHR0cHM6Ly9kZXBvdC5jb20vcm9nZXIvcXVlc3Rpb25zX3Byb2cvZm9uY3Rpb25zMDEvYXBwZWxlcl91bmVfZm9uY3Rpb24",
        "commentaires": "https://example.com/tentative/jdoe/aHR0cHM6Ly9kZXBvdC5jb20vcm9nZXIvcXVlc3Rpb25zX3Byb2cvZm9uY3Rpb25zMDEvYXBwZWxlcl91bmVfZm9uY3Rpb24/1614965817/commentaires",
        "self": "https://example.com/tentative/jdoe/aHR0cHM6Ly9kZXBvdC5jb20vcm9nZXIvcXVlc3Rpb25zX3Byb2cvZm9uY3Rpb25zMDEvYXBwZWxlcl91bmVfZm9uY3Rpb24/1614965817"
      },
      "relationships": {
        "commentaires": {
          "data": [
            {
              "id": "jdoe/aHR0cHM6Ly9kZXBvdC5jb20vcm9nZXIvcXVlc3Rpb25zX3Byb2cvZm9uY3Rpb25zMDEvYXBwZWxlcl91bmVfZm9uY3Rpb24/1614965817/0",
              "type": "commentaire"
            },
            {
              "id": "jdoe/aHR0cHM6Ly9kZXBvdC5jb20vcm9nZXIvcXVlc3Rpb25zX3Byb2cvZm9uY3Rpb25zMDEvYXBwZWxlcl91bmVfZm9uY3Rpb24/1614965817/1",
              "type": "commentaire"
            }
          ],
          "links": {
            "related": "https://example.com/tentative/jdoe/aHR0cHM6Ly9kZXBvdC5jb20vcm9nZXIvcXVlc3Rpb25zX3Byb2cvZm9uY3Rpb25zMDEvYXBwZWxlcl91bmVfZm9uY3Rpb24/1614965817/commentaires",
            "self": "https://example.com/tentative/jdoe/aHR0cHM6Ly9kZXBvdC5jb20vcm9nZXIvcXVlc3Rpb25zX3Byb2cvZm9uY3Rpb25zMDEvYXBwZWxlcl91bmVfZm9uY3Rpb24/1614965817/relationships/commentaires"
          }
        },
        "resultats": {
          "links": {
            "related": "https://example.com/tentative/jdoe/aHR0cHM6Ly9kZXBvdC5jb20vcm9nZXIvcXVlc3Rpb25zX3Byb2cvZm9uY3Rpb25zMDEvYXBwZWxlcl91bmVfZm9uY3Rpb24/1614965817/resultats",
            "self": "https://example.com/tentative/jdoe/aHR0cHM6Ly9kZXBvdC5jb20vcm9nZXIvcXVlc3Rpb25zX3Byb2cvZm9uY3Rpb25zMDEvYXBwZWxlcl91bmVfZm9uY3Rpb24/1614965817/relationships/resultats"
          }
        }
      }
    },
    {
      "type": "tentative",
      "attributes": {
        "code": "codeTest 2",
        "date_soumission": 1614965818,
        "feedback": "feedbackTest",
        "langage": "python",
        "réussi": true,
        "sous_type": "tentativeProg",
        "temps_exécution": null,
        "tests_réussis": 2,
        "publique": false
      },
      "id": "jdoe/aHR0cHM6Ly9kZXBvdC5jb20vcm9nZXIvcXVlc3Rpb25zX3Byb2cvZm9uY3Rpb25zMDEvYXBwZWxlcl91bmVfZm9uY3Rpb24/1614965818",
      "links": {
        "avancement": "https://example.com/avancement/jdoe/aHR0cHM6Ly9kZXBvdC5jb20vcm9nZXIvcXVlc3Rpb25zX3Byb2cvZm9uY3Rpb25zMDEvYXBwZWxlcl91bmVfZm9uY3Rpb24",
        "commentaires": "https://example.com/tentative/jdoe/aHR0cHM6Ly9kZXBvdC5jb20vcm9nZXIvcXVlc3Rpb25zX3Byb2cvZm9uY3Rpb25zMDEvYXBwZWxlcl91bmVfZm9uY3Rpb24/1614965818/commentaires",
        "self": "https://example.com/tentative/jdoe/aHR0cHM6Ly9kZXBvdC5jb20vcm9nZXIvcXVlc3Rpb25zX3Byb2cvZm9uY3Rpb25zMDEvYXBwZWxlcl91bmVfZm9uY3Rpb24/1614965818"
      },
      "relationships": {
        "commentaires": {
          "data": [
            {
              "id": "jdoe/aHR0cHM6Ly9kZXBvdC5jb20vcm9nZXIvcXVlc3Rpb25zX3Byb2cvZm9uY3Rpb25zMDEvYXBwZWxlcl91bmVfZm9uY3Rpb24/1614965818/0",
              "type": "commentaire"
            }
          ],
          "links": {
            "related": "https://example.com/tentative/jdoe/aHR0cHM6Ly9kZXBvdC5jb20vcm9nZXIvcXVlc3Rpb25zX3Byb2cvZm9uY3Rpb25zMDEvYXBwZWxlcl91bmVfZm9uY3Rpb24/1614965818/commentaires",
            "self": "https://example.com/tentative/jdoe/aHR0cHM6Ly9kZXBvdC5jb20vcm9nZXIvcXVlc3Rpb25zX3Byb2cvZm9uY3Rpb25zMDEvYXBwZWxlcl91bmVfZm9uY3Rpb24/1614965818/relationships/commentaires"
          }
        },
        "resultats": {
          "links": {
            "related": "https://example.com/tentative/jdoe/aHR0cHM6Ly9kZXBvdC5jb20vcm9nZXIvcXVlc3Rpb25zX3Byb2cvZm9uY3Rpb25zMDEvYXBwZWxlcl91bmVfZm9uY3Rpb24/1614965818/resultats",
            "self": "https://example.com/tentative/jdoe/aHR0cHM6Ly9kZXBvdC5jb20vcm9nZXIvcXVlc3Rpb25zX3Byb2cvZm9uY3Rpb25zMDEvYXBwZWxlcl91bmVfZm9uY3Rpb24/1614965818/relationships/resultats"
          }
        }
      }
    },
    {
      "attributes": {
        "code": "Test 1",
        "date_sauvegarde": 1614965817
      },
      "id": "jdoe/aHR0cHM6Ly9kZXBvdC5jb20vcm9nZXIvcXVlc3Rpb25zX3Byb2cvZm9uY3Rpb25zMDEvYXBwZWxlcl91bmVfZm9uY3Rpb24/python",
      "links": {
        "avancement": "https://example.com/avancement/jdoe/aHR0cHM6Ly9kZXBvdC5jb20vcm9nZXIvcXVlc3Rpb25zX3Byb2cvZm9uY3Rpb25zMDEvYXBwZWxlcl91bmVfZm9uY3Rpb24",
        "self": "https://example.com/sauvegarde/jdoe/aHR0cHM6Ly9kZXBvdC5jb20vcm9nZXIvcXVlc3Rpb25zX3Byb2cvZm9uY3Rpb25zMDEvYXBwZWxlcl91bmVfZm9uY3Rpb24/python"
      },
      "type": "sauvegarde"
    },
    {
      "attributes": {
        "code": "Test 2",
        "date_sauvegarde": 1614965818
      },
      "id": "jdoe/aHR0cHM6Ly9kZXBvdC5jb20vcm9nZXIvcXVlc3Rpb25zX3Byb2cvZm9uY3Rpb25zMDEvYXBwZWxlcl91bmVfZm9uY3Rpb24/java",
      "links": {
        "avancement": "https://example.com/avancement/jdoe/aHR0cHM6Ly9kZXBvdC5jb20vcm9nZXIvcXVlc3Rpb25zX3Byb2cvZm9uY3Rpb25zMDEvYXBwZWxlcl91bmVfZm9uY3Rpb24",
        "self": "https://example.com/sauvegarde/jdoe/aHR0cHM6Ly9kZXBvdC5jb20vcm9nZXIvcXVlc3Rpb25zX3Byb2cvZm9uY3Rpb25zMDEvYXBwZWxlcl91bmVfZm9uY3Rpb24/java"
      },
      "type": "sauvegarde"
    }
  ]
}
