{
	"data": {
		"type": "avancement",
		"id": "jdoe/aHR0cHM6Ly90ZXN0LmNvbS9xdWVzdGlvbl9zZXF1ZW5jZS9pbmZvLnltbA",
		"attributes": {
			"état": "non_réussi",
			"titre": "Une question séquence",
			"niveau": "graduel",
			"date_modification": 1614965818,
			"date_réussite": null,
			"extra": null
		},
		"links": {
			"question": "https://example.com/question/aHR0cHM6Ly90ZXN0LmNvbS9xdWVzdGlvbl9zZXF1ZW5jZS9pbmZvLnltbA",
			"self": "https://example.com/avancement/jdoe/aHR0cHM6Ly90ZXN0LmNvbS9xdWVzdGlvbl9zZXF1ZW5jZS9pbmZvLnltbA",
			"soumettre": "https://example.com/avancement/jdoe/aHR0cHM6Ly90ZXN0LmNvbS9xdWVzdGlvbl9zZXF1ZW5jZS9pbmZvLnltbA/tentatives",
			"user": "https://example.com/user/jdoe"
		},
		"relationships": {
            "avancements": {
	            "links": {
		            "self": "https://example.com/avancement/jdoe/aHR0cHM6Ly90ZXN0LmNvbS9xdWVzdGlvbl9zZXF1ZW5jZS9pbmZvLnltbA/relationships/avancements",
		            "related": "https://example.com/avancement/jdoe/aHR0cHM6Ly90ZXN0LmNvbS9xdWVzdGlvbl9zZXF1ZW5jZS9pbmZvLnltbA/avancements"
	            },
                "data": [
                    {
                        "id": "jdoe/aHR0cHM6Ly9kZXBvdC5jb20vcm9nZXIvcXVlc3Rpb25zX3Byb2cvZm9uY3Rpb25zMDEvYXBwZWxlcl91bmVfZm9uY3Rpb24",
                        "type": "avancement"
                    },
                    {
	                    "id": "jdoe/aHR0cHM6Ly9kZXBvdC5jb20vcm9nZXIvcXVlc3Rpb25zX3Byb2cvZm9uY3Rpb25zMDEvYXBwZWxlcl9hdXRyZV91bmVfZm9uY3Rpb24",
                        "type": "avancement"
                    }
                ]
            }
		}
	},
    "included": [
        {
            "attributes": {
                "date_modification": 1614965818,
                "date_réussite": 1614965817,
                "extra": "Infos extra",
                "niveau": "facile",
                "titre": "Avancement de test",
                "état": "réussi"
            },
            "id": "jdoe/aHR0cHM6Ly9kZXBvdC5jb20vcm9nZXIvcXVlc3Rpb25zX3Byb2cvZm9uY3Rpb25zMDEvYXBwZWxlcl91bmVfZm9uY3Rpb24",
            "links": {
	            "question": "https://example.com/question/aHR0cHM6Ly9kZXBvdC5jb20vcm9nZXIvcXVlc3Rpb25zX3Byb2cvZm9uY3Rpb25zMDEvYXBwZWxlcl91bmVfZm9uY3Rpb24",
                "self": "https://example.com/avancement/jdoe/aHR0cHM6Ly9kZXBvdC5jb20vcm9nZXIvcXVlc3Rpb25zX3Byb2cvZm9uY3Rpb25zMDEvYXBwZWxlcl91bmVfZm9uY3Rpb24",
	            "user": "https://example.com/user/jdoe",
	            "soumettre": "https://example.com/avancement/jdoe/aHR0cHM6Ly9kZXBvdC5jb20vcm9nZXIvcXVlc3Rpb25zX3Byb2cvZm9uY3Rpb25zMDEvYXBwZWxlcl91bmVfZm9uY3Rpb24/tentatives"
            },
            "relationships": {
                "sauvegardes": {
                    "links": {
                        "related": "https://example.com/avancement/jdoe/aHR0cHM6Ly9kZXBvdC5jb20vcm9nZXIvcXVlc3Rpb25zX3Byb2cvZm9uY3Rpb25zMDEvYXBwZWxlcl91bmVfZm9uY3Rpb24/sauvegardes",
                        "self": "https://example.com/avancement/jdoe/aHR0cHM6Ly9kZXBvdC5jb20vcm9nZXIvcXVlc3Rpb25zX3Byb2cvZm9uY3Rpb25zMDEvYXBwZWxlcl91bmVfZm9uY3Rpb24/relationships/sauvegardes"
                    }
                },
                "tentatives": {
                    "links": {
                        "related": "https://example.com/avancement/jdoe/aHR0cHM6Ly9kZXBvdC5jb20vcm9nZXIvcXVlc3Rpb25zX3Byb2cvZm9uY3Rpb25zMDEvYXBwZWxlcl91bmVfZm9uY3Rpb24/tentatives",
                        "self": "https://example.com/avancement/jdoe/aHR0cHM6Ly9kZXBvdC5jb20vcm9nZXIvcXVlc3Rpb25zX3Byb2cvZm9uY3Rpb25zMDEvYXBwZWxlcl91bmVfZm9uY3Rpb24/relationships/tentatives"
                    }
                }
            },
            "type": "avancement"
        },
        {
            "attributes": {
                "date_modification": null,
                "date_réussite": null,
                "extra": null,
                "niveau": null,
                "titre": "Deuxième question",
                "état": "non_réussi"
            },
            "id": "jdoe/aHR0cHM6Ly9kZXBvdC5jb20vcm9nZXIvcXVlc3Rpb25zX3Byb2cvZm9uY3Rpb25zMDEvYXBwZWxlcl9hdXRyZV91bmVfZm9uY3Rpb24",
            "links": {
                "question": "https://example.com/question/aHR0cHM6Ly9kZXBvdC5jb20vcm9nZXIvcXVlc3Rpb25zX3Byb2cvZm9uY3Rpb25zMDEvYXBwZWxlcl9hdXRyZV91bmVfZm9uY3Rpb24",
                "self": "https://example.com/avancement/jdoe/aHR0cHM6Ly9kZXBvdC5jb20vcm9nZXIvcXVlc3Rpb25zX3Byb2cvZm9uY3Rpb25zMDEvYXBwZWxlcl9hdXRyZV91bmVfZm9uY3Rpb24",
	            "user": "https://example.com/user/jdoe",
	            "soumettre": "https://example.com/avancement/jdoe/aHR0cHM6Ly9kZXBvdC5jb20vcm9nZXIvcXVlc3Rpb25zX3Byb2cvZm9uY3Rpb25zMDEvYXBwZWxlcl9hdXRyZV91bmVfZm9uY3Rpb24/tentatives"	            
            },
            "relationships": {
                "sauvegardes": {
                    "links": {
                        "related": "https://example.com/avancement/jdoe/aHR0cHM6Ly9kZXBvdC5jb20vcm9nZXIvcXVlc3Rpb25zX3Byb2cvZm9uY3Rpb25zMDEvYXBwZWxlcl9hdXRyZV91bmVfZm9uY3Rpb24/sauvegardes",
                        "self": "https://example.com/avancement/jdoe/aHR0cHM6Ly9kZXBvdC5jb20vcm9nZXIvcXVlc3Rpb25zX3Byb2cvZm9uY3Rpb25zMDEvYXBwZWxlcl9hdXRyZV91bmVfZm9uY3Rpb24/relationships/sauvegardes"
                    }
                },
                "tentatives": {
                    "links": {
                        "related": "https://example.com/avancement/jdoe/aHR0cHM6Ly9kZXBvdC5jb20vcm9nZXIvcXVlc3Rpb25zX3Byb2cvZm9uY3Rpb25zMDEvYXBwZWxlcl9hdXRyZV91bmVfZm9uY3Rpb24/tentatives",
                        "self": "https://example.com/avancement/jdoe/aHR0cHM6Ly9kZXBvdC5jb20vcm9nZXIvcXVlc3Rpb25zX3Byb2cvZm9uY3Rpb25zMDEvYXBwZWxlcl9hdXRyZV91bmVfZm9uY3Rpb24/relationships/tentatives"
                    }
                }
            },
            "type": "avancement"
        }
    ]
}
