{
	"data": {
		"type": "avancement",
		"id": "jdoe/aHR0cHM6Ly90ZXN0LmNvbS9xdWVzdGlvbl9zZXF1ZW5jZS9pbmZvLnltbA",
		"attributes": {
			"état": "non_réussi",
			"titre": "Une question séquence",
			"niveau": "graduel",
			"date_modification": 1614965818,
			"date_réussite": null,
			"extra": null
		},
		"links": {
			"question": "https://example.com/question/aHR0cHM6Ly90ZXN0LmNvbS9xdWVzdGlvbl9zZXF1ZW5jZS9pbmZvLnltbA",
			"self": "https://example.com/avancement/jdoe/aHR0cHM6Ly90ZXN0LmNvbS9xdWVzdGlvbl9zZXF1ZW5jZS9pbmZvLnltbA",
			"soumettre": "https://example.com/avancement/jdoe/aHR0cHM6Ly90ZXN0LmNvbS9xdWVzdGlvbl9zZXF1ZW5jZS9pbmZvLnltbA/tentatives",
			"user": "https://example.com/user/jdoe"
		},
		"relationships": {
			"avancements": {
				"links": {
					"related": "https://example.com/avancement/jdoe/aHR0cHM6Ly90ZXN0LmNvbS9xdWVzdGlvbl9zZXF1ZW5jZS9pbmZvLnltbA/avancements",
					"self": "https://example.com/avancement/jdoe/aHR0cHM6Ly90ZXN0LmNvbS9xdWVzdGlvbl9zZXF1ZW5jZS9pbmZvLnltbA/relationships/avancements"
				}
            }
		}
	}
}
