{
    "data": [
        {
            "attributes": {
                "nom": "Première banque de test"
            },
            "id": "bob/aHR0cHM6Ly9leGVtcGxlLmNvbS9iYW5xdWVfMS9jb250ZW51LnltbA",
            "links": {
                "self": "https://example.com/banque/bob/aHR0cHM6Ly9leGVtcGxlLmNvbS9iYW5xdWVfMS9jb250ZW51LnltbA",
                "user": "https://example.com/user/bob"
            },
            "relationships": {
                "banques": {
                    "data": [
                        {
                            "id": "bob/aHR0cHM6Ly9leGVtcGxlLmNvbS9iYW5xdWVfMS9jb250ZW51LnltbCNzb3VzLXLDqXBlcnRvaXJlIDE",
                            "type": "banque"
                        },
                        {
                            "id": "bob/aHR0cHM6Ly9leGVtcGxlLmNvbS9iYW5xdWVfMS9jb250ZW51LnltbCNzb3VzLXLDqXBlcnRvaXJlIDI",
                            "type": "banque"
                        }
                    ],
                    "links": {
                        "related": "https://example.com/banque/bob/aHR0cHM6Ly9leGVtcGxlLmNvbS9iYW5xdWVfMS9jb250ZW51LnltbA/banques",
                        "self": "https://example.com/banque/bob/aHR0cHM6Ly9leGVtcGxlLmNvbS9iYW5xdWVfMS9jb250ZW51LnltbA/relationships/banques"
                    }
                },
                "questions": {

                    "links": {
                        "related": "https://example.com/banque/bob/aHR0cHM6Ly9leGVtcGxlLmNvbS9iYW5xdWVfMS9jb250ZW51LnltbA/questions",
                        "self": "https://example.com/banque/bob/aHR0cHM6Ly9leGVtcGxlLmNvbS9iYW5xdWVfMS9jb250ZW51LnltbA/relationships/questions"
                    }
                }
            },
            "type": "banque"
        },
        {
            "attributes": {
                "nom": "Deuxième banque de test"
            },
            "id": "bob/aHR0cHM6Ly9leGVtcGxlLmNvbS9iYW5xdWVfMi9jb250ZW51LnltbA",
            "links": {
                "self": "https://example.com/banque/bob/aHR0cHM6Ly9leGVtcGxlLmNvbS9iYW5xdWVfMi9jb250ZW51LnltbA",
                "user": "https://example.com/user/bob"
            },
            "relationships": {
                "banques": {
                    "data": [],
                    "links": {
                        "related": "https://example.com/banque/bob/aHR0cHM6Ly9leGVtcGxlLmNvbS9iYW5xdWVfMi9jb250ZW51LnltbA/banques",
                        "self": "https://example.com/banque/bob/aHR0cHM6Ly9leGVtcGxlLmNvbS9iYW5xdWVfMi9jb250ZW51LnltbA/relationships/banques"
                    }
                },
                "questions": {
                    "links": {
                        "related": "https://example.com/banque/bob/aHR0cHM6Ly9leGVtcGxlLmNvbS9iYW5xdWVfMi9jb250ZW51LnltbA/questions",
                        "self": "https://example.com/banque/bob/aHR0cHM6Ly9leGVtcGxlLmNvbS9iYW5xdWVfMi9jb250ZW51LnltbA/relationships/questions"
                    }
                }
            },
            "type": "banque"
        }
    ],
    "included": [
        {
            "attributes": {
                "nom": "Banque Sous-répertoire 1"
            },
            "id": "bob/aHR0cHM6Ly9leGVtcGxlLmNvbS9iYW5xdWVfMS9jb250ZW51LnltbCNzb3VzLXLDqXBlcnRvaXJlIDE",
            "links": {
                "self": "https://example.com/banque/bob/aHR0cHM6Ly9leGVtcGxlLmNvbS9iYW5xdWVfMS9jb250ZW51LnltbCNzb3VzLXLDqXBlcnRvaXJlIDE",
                "user": "https://example.com/user/bob"
            },
            "relationships": {
                "banques": {
                    "links": {
                        "related": "https://example.com/banque/bob/aHR0cHM6Ly9leGVtcGxlLmNvbS9iYW5xdWVfMS9jb250ZW51LnltbCNzb3VzLXLDqXBlcnRvaXJlIDE/banques",
                        "self": "https://example.com/banque/bob/aHR0cHM6Ly9leGVtcGxlLmNvbS9iYW5xdWVfMS9jb250ZW51LnltbCNzb3VzLXLDqXBlcnRvaXJlIDE/relationships/banques"
                    }
                },
                "questions": {
                    "links": {
                        "related": "https://example.com/banque/bob/aHR0cHM6Ly9leGVtcGxlLmNvbS9iYW5xdWVfMS9jb250ZW51LnltbCNzb3VzLXLDqXBlcnRvaXJlIDE/questions",
                        "self": "https://example.com/banque/bob/aHR0cHM6Ly9leGVtcGxlLmNvbS9iYW5xdWVfMS9jb250ZW51LnltbCNzb3VzLXLDqXBlcnRvaXJlIDE/relationships/questions"
                    }
                }
            },
            "type": "banque"
        },
        {
            "attributes": {
                "nom": "Banque Sous-répertoire 2"
            },
            "id": "bob/aHR0cHM6Ly9leGVtcGxlLmNvbS9iYW5xdWVfMS9jb250ZW51LnltbCNzb3VzLXLDqXBlcnRvaXJlIDI",
            "links": {
                "self": "https://example.com/banque/bob/aHR0cHM6Ly9leGVtcGxlLmNvbS9iYW5xdWVfMS9jb250ZW51LnltbCNzb3VzLXLDqXBlcnRvaXJlIDI",
                "user": "https://example.com/user/bob"
            },
            "relationships": {
                "banques": {
                    "links": {
                        "related": "https://example.com/banque/bob/aHR0cHM6Ly9leGVtcGxlLmNvbS9iYW5xdWVfMS9jb250ZW51LnltbCNzb3VzLXLDqXBlcnRvaXJlIDI/banques",
                        "self": "https://example.com/banque/bob/aHR0cHM6Ly9leGVtcGxlLmNvbS9iYW5xdWVfMS9jb250ZW51LnltbCNzb3VzLXLDqXBlcnRvaXJlIDI/relationships/banques"
                    }
                },
                "questions": {
                    "links": {
                        "related": "https://example.com/banque/bob/aHR0cHM6Ly9leGVtcGxlLmNvbS9iYW5xdWVfMS9jb250ZW51LnltbCNzb3VzLXLDqXBlcnRvaXJlIDI/questions",
                        "self": "https://example.com/banque/bob/aHR0cHM6Ly9leGVtcGxlLmNvbS9iYW5xdWVfMS9jb250ZW51LnltbCNzb3VzLXLDqXBlcnRvaXJlIDI/relationships/questions"
                    }
                }
            },
            "type": "banque"
        }
    ]
}

