{
	"data": {
		"type": "banque",
		"id": "bob/aHR0cDovL25vdXZlbGxlYmFucXVlLmNvbQ",
		"attributes": {
			"nom": "une nouvelle banque"
		},
		"links": {
			"self": "https://example.com/banque/bob/aHR0cDovL25vdXZlbGxlYmFucXVlLmNvbQ",
			"user": "https://example.com/user/bob"
		},
		"relationships": {
            "banques": {
                "links": {
                    "related": "https://example.com/banque/bob/aHR0cDovL25vdXZlbGxlYmFucXVlLmNvbQ/banques",
                    "self": "https://example.com/banque/bob/aHR0cDovL25vdXZlbGxlYmFucXVlLmNvbQ/relationships/banques"
                }
            },
			"questions": {
				"links": {
					"self": "https://example.com/banque/bob/aHR0cDovL25vdXZlbGxlYmFucXVlLmNvbQ/relationships/questions",
					"related": "https://example.com/banque/bob/aHR0cDovL25vdXZlbGxlYmFucXVlLmNvbQ/questions"
				}
			}
		}
	}
}
