{
	"data": [
		{
			"type": "banque",
			"id": "bob/aHR0cHM6Ly9leGVtcGxlLmNvbS9iYW5xdWVfMS9jb250ZW51LnltbA",
			"attributes": {
				"nom": "Test banque de questions 1 - fichier yaml valide"
			},
			"links": {
				"self": "https://example.com/banque/bob/aHR0cHM6Ly9leGVtcGxlLmNvbS9iYW5xdWVfMS9jb250ZW51LnltbA",
				"user": "https://example.com/user/bob"
			},
			"relationships": {
                "banques": {
                    "links": {
                        "related": "https://example.com/banque/bob/aHR0cHM6Ly9leGVtcGxlLmNvbS9iYW5xdWVfMS9jb250ZW51LnltbA/banques",
                        "self": "https://example.com/banque/bob/aHR0cHM6Ly9leGVtcGxlLmNvbS9iYW5xdWVfMS9jb250ZW51LnltbA/relationships/banques"
                    }
                },				
				"questions": {
					"links": {
						"self": "https://example.com/banque/bob/aHR0cHM6Ly9leGVtcGxlLmNvbS9iYW5xdWVfMS9jb250ZW51LnltbA/relationships/questions",
						"related": "https://example.com/banque/bob/aHR0cHM6Ly9leGVtcGxlLmNvbS9iYW5xdWVfMS9jb250ZW51LnltbA/questions"
					}
				}
			}
		},		
		{
			"type": "banque",
			"id": "bob/aHR0cHM6Ly9leGVtcGxlLmNvbS9iYW5xdWVfMi9jb250ZW51LnltbA",
			"attributes": {
				"nom": "Test banque de questions 2 - fichier yaml valide"
			},
			"links": {
				"self": "https://example.com/banque/bob/aHR0cHM6Ly9leGVtcGxlLmNvbS9iYW5xdWVfMi9jb250ZW51LnltbA",
				"user": "https://example.com/user/bob"
			},
			"relationships": {
                "banques": {
                    "links": {
                        "related": "https://example.com/banque/bob/aHR0cHM6Ly9leGVtcGxlLmNvbS9iYW5xdWVfMi9jb250ZW51LnltbA/banques",
                        "self": "https://example.com/banque/bob/aHR0cHM6Ly9leGVtcGxlLmNvbS9iYW5xdWVfMi9jb250ZW51LnltbA/relationships/banques"
                    }
                },				
				"questions": {
					"links": {
						"self": "https://example.com/banque/bob/aHR0cHM6Ly9leGVtcGxlLmNvbS9iYW5xdWVfMi9jb250ZW51LnltbA/relationships/questions",
						"related": "https://example.com/banque/bob/aHR0cHM6Ly9leGVtcGxlLmNvbS9iYW5xdWVfMi9jb250ZW51LnltbA/questions"
					}
				}
			}
		}
	]
}
