{
    "data": {
        "attributes": {
	        "nom": "test/slash"
        },
        "id": "bob/aHR0cHM6Ly9leGVtcGxlLmNvbS90ZXN0L2NvbnRlbnUueW1sI3Rlc3QlMjUyRnNsYXNo",
        "links": {
            "self": "https://example.com/banque/bob/aHR0cHM6Ly9leGVtcGxlLmNvbS90ZXN0L2NvbnRlbnUueW1sI3Rlc3QlMjUyRnNsYXNo",
            "user": "https://example.com/user/bob"
        },
        "relationships": {
            "banques": {
                "links": {
                    "related": "https://example.com/banque/bob/aHR0cHM6Ly9leGVtcGxlLmNvbS90ZXN0L2NvbnRlbnUueW1sI3Rlc3QlMjUyRnNsYXNo/banques",
                    "self": "https://example.com/banque/bob/aHR0cHM6Ly9leGVtcGxlLmNvbS90ZXN0L2NvbnRlbnUueW1sI3Rlc3QlMjUyRnNsYXNo/relationships/banques"
                }
            },
            "questions": {
                "links": {
                    "related": "https://example.com/banque/bob/aHR0cHM6Ly9leGVtcGxlLmNvbS90ZXN0L2NvbnRlbnUueW1sI3Rlc3QlMjUyRnNsYXNo/questions",
                    "self": "https://example.com/banque/bob/aHR0cHM6Ly9leGVtcGxlLmNvbS90ZXN0L2NvbnRlbnUueW1sI3Rlc3QlMjUyRnNsYXNo/relationships/questions"
                }
            }
        },
        "type": "banque"
    }
}

