{
  "data": {
    "type": "question",
    "id": "aHR0cHM6Ly9kZXBvdC5jb20vcm9nZXIvcXVlc3Rpb25zX3Byb2cvZm9uY3Rpb25zMDEvYXBwZWxlcl91bmVfZm9uY3Rpb24",
    "attributes": {
      "niveau": "débutant",
      "titre": "Appeler une fonction paramétrée",
      "objectif": "Appel d'une fonction existante recevant un paramètre",
      "description": "Ceci est une question prog complète",
      "énoncé": "La fonction `salutations` affiche une salution autant de fois que la valeur reçue en paramètre. Utilisez-la pour faire afficher «Bonjour le monde!» autant de fois que le nombre reçu en entrée.",
      "auteur": "Albert Einstein",
      "licence": "poétique",
      "sous_type": "prog"
    },
    "links": {
	    "avancement": "https://example.com/avancement/bob/aHR0cHM6Ly9kZXBvdC5jb20vcm9nZXIvcXVlc3Rpb25zX3Byb2cvZm9uY3Rpb25zMDEvYXBwZWxlcl91bmVfZm9uY3Rpb24",
	    "self": "https://example.com/question/aHR0cHM6Ly9kZXBvdC5jb20vcm9nZXIvcXVlc3Rpb25zX3Byb2cvZm9uY3Rpb25zMDEvYXBwZWxlcl91bmVfZm9uY3Rpb24",
		"résultats": "https://example.com/question/aHR0cHM6Ly9kZXBvdC5jb20vcm9nZXIvcXVlc3Rpb25zX3Byb2cvZm9uY3Rpb25zMDEvYXBwZWxlcl91bmVfZm9uY3Rpb24/resultats"
    },
    "relationships": {
      "tests": {
        "links": {
          "self": "https://example.com/question/aHR0cHM6Ly9kZXBvdC5jb20vcm9nZXIvcXVlc3Rpb25zX3Byb2cvZm9uY3Rpb25zMDEvYXBwZWxlcl91bmVfZm9uY3Rpb24/relationships/tests",
          "related": "https://example.com/question/aHR0cHM6Ly9kZXBvdC5jb20vcm9nZXIvcXVlc3Rpb25zX3Byb2cvZm9uY3Rpb25zMDEvYXBwZWxlcl91bmVfZm9uY3Rpb24/tests"
        },
        "data": [
          {
            "type": "test",
            "id": "aHR0cHM6Ly9kZXBvdC5jb20vcm9nZXIvcXVlc3Rpb25zX3Byb2cvZm9uY3Rpb25zMDEvYXBwZWxlcl91bmVfZm9uY3Rpb24/0"
          },
          {
            "type": "test",
            "id": "aHR0cHM6Ly9kZXBvdC5jb20vcm9nZXIvcXVlc3Rpb25zX3Byb2cvZm9uY3Rpb25zMDEvYXBwZWxlcl91bmVfZm9uY3Rpb24/1"
          }
        ]
      },
      "ebauches": {
        "links": {
          "self": "https://example.com/question/aHR0cHM6Ly9kZXBvdC5jb20vcm9nZXIvcXVlc3Rpb25zX3Byb2cvZm9uY3Rpb25zMDEvYXBwZWxlcl91bmVfZm9uY3Rpb24/relationships/ebauches",
          "related": "https://example.com/question/aHR0cHM6Ly9kZXBvdC5jb20vcm9nZXIvcXVlc3Rpb25zX3Byb2cvZm9uY3Rpb25zMDEvYXBwZWxlcl91bmVfZm9uY3Rpb24/ebauches"
        },
        "data": [
          {
            "type": "ebauche",
            "id": "aHR0cHM6Ly9kZXBvdC5jb20vcm9nZXIvcXVlc3Rpb25zX3Byb2cvZm9uY3Rpb25zMDEvYXBwZWxlcl91bmVfZm9uY3Rpb24/python"
          },
          {
            "type": "ebauche",
            "id": "aHR0cHM6Ly9kZXBvdC5jb20vcm9nZXIvcXVlc3Rpb25zX3Byb2cvZm9uY3Rpb25zMDEvYXBwZWxlcl91bmVfZm9uY3Rpb24/java"
          }
        ]
      }
    }
  },
  "included": [
    {
      "type": "test",
      "id": "aHR0cHM6Ly9kZXBvdC5jb20vcm9nZXIvcXVlc3Rpb25zX3Byb2cvZm9uY3Rpb25zMDEvYXBwZWxlcl91bmVfZm9uY3Rpb24/0",
      "attributes": {
        "nom": "2 salutations",
        "entrée": "2",
        "params": "param_0 param_1",
        "sortie_attendue": "Bonjour\nBonjour\n",
		"caché": false
      },
      "links": {
          "question": "https://example.com/question/aHR0cHM6Ly9kZXBvdC5jb20vcm9nZXIvcXVlc3Rpb25zX3Byb2cvZm9uY3Rpb25zMDEvYXBwZWxlcl91bmVfZm9uY3Rpb24",
          "self": "https://example.com/test/aHR0cHM6Ly9kZXBvdC5jb20vcm9nZXIvcXVlc3Rpb25zX3Byb2cvZm9uY3Rpb25zMDEvYXBwZWxlcl91bmVfZm9uY3Rpb24/0"
      }
    },
    {
      "type": "test",
      "id": "aHR0cHM6Ly9kZXBvdC5jb20vcm9nZXIvcXVlc3Rpb25zX3Byb2cvZm9uY3Rpb25zMDEvYXBwZWxlcl91bmVfZm9uY3Rpb24/1",
      "attributes": {
        "nom": "Aucune salutation",
        "entrée": null,
        "params": null,
        "sortie_attendue": null,
		"caché": true
      },
      "links": {
          "question": "https://example.com/question/aHR0cHM6Ly9kZXBvdC5jb20vcm9nZXIvcXVlc3Rpb25zX3Byb2cvZm9uY3Rpb25zMDEvYXBwZWxlcl91bmVfZm9uY3Rpb24",
          "self": "https://example.com/test/aHR0cHM6Ly9kZXBvdC5jb20vcm9nZXIvcXVlc3Rpb25zX3Byb2cvZm9uY3Rpb25zMDEvYXBwZWxlcl91bmVfZm9uY3Rpb24/1"
      }
    },
    {
      "type": "ebauche",
      "id": "aHR0cHM6Ly9kZXBvdC5jb20vcm9nZXIvcXVlc3Rpb25zX3Byb2cvZm9uY3Rpb25zMDEvYXBwZWxlcl91bmVfZm9uY3Rpb24/python",
      "attributes": {
        "langage": "python",
        "code": "print(\"Hello world\")"
      },
      "links": {
          "question": "https://example.com/question/aHR0cHM6Ly9kZXBvdC5jb20vcm9nZXIvcXVlc3Rpb25zX3Byb2cvZm9uY3Rpb25zMDEvYXBwZWxlcl91bmVfZm9uY3Rpb24",
          "self": "https://example.com/ebauche/aHR0cHM6Ly9kZXBvdC5jb20vcm9nZXIvcXVlc3Rpb25zX3Byb2cvZm9uY3Rpb25zMDEvYXBwZWxlcl91bmVfZm9uY3Rpb24/python"
      }
    },
    {
      "type": "ebauche",
      "id": "aHR0cHM6Ly9kZXBvdC5jb20vcm9nZXIvcXVlc3Rpb25zX3Byb2cvZm9uY3Rpb25zMDEvYXBwZWxlcl91bmVfZm9uY3Rpb24/java",
      "attributes": {
        "langage": "java",
        "code": "System.out.println(\"Hello world\")"
      },
      "links": {
          "question": "https://example.com/question/aHR0cHM6Ly9kZXBvdC5jb20vcm9nZXIvcXVlc3Rpb25zX3Byb2cvZm9uY3Rpb25zMDEvYXBwZWxlcl91bmVfZm9uY3Rpb24",
          "self": "https://example.com/ebauche/aHR0cHM6Ly9kZXBvdC5jb20vcm9nZXIvcXVlc3Rpb25zX3Byb2cvZm9uY3Rpb25zMDEvYXBwZWxlcl91bmVfZm9uY3Rpb24/java"
      }
    }
  ]
}
