{
  "data": {
    "type": "token",
    "id": "n86BeO73SX8_LVklBiKHEvpHxSx5MakUbF_6fRWpwxE",
    "attributes": {
      "username": "utilisateur_lambda",
      "création": 990446400,
      "expiration": 0,
      "data": [],
      "jwt": "eyJ0eXAiOiJKV1QiLCJhbGciOiJIUzI1NiJ9.eyJ1c2VybmFtZSI6InV0aWxpc2F0ZXVyX2xhbWJkYSIsImN1cnJlbnQiOjk5MDQ0NjQwMCwiZXhwaXJlZCI6MCwiZGF0YSI6W10sInZlcnNpb24iOiIxLjIuMyJ9.n86BeO73SX8_LVklBiKHEvpHxSx5MakUbF_6fRWpwxE",
      "version": "1.2.3"
    },
    "links": {
      "self": "https://example.com/token/n86BeO73SX8_LVklBiKHEvpHxSx5MakUbF_6fRWpwxE",
      "user": "https://example.com/user/utilisateur_lambda"
    }
  }
}
