{
  "data": {
    "type": "user",
    "id": "jdoe",
    "attributes": {
      "username": "jdoe",
      "date_inscription": 1600828609,
      "courriel": "jdoe@progressionmail.com",
      "état": "actif",
      "rôle": "admin",
      "préférences": "{\"app\": {\"pref1\": 1, \"pref2\": 2}}",
      "prénom": "",
      "nom": "",
      "nom_complet": "",
      "pseudonyme": "jdoe",
      "biographie": "",
      "occupation": "autre",
      "avatar": ""
    },
    "links": {
      "self": "https://example.com/user/jdoe",
      "tokens": "https://example.com/user/jdoe/tokens",
      "avancements": "https://example.com/user/jdoe/avancements",
      "banques": "https://example.com/user/jdoe/banques",
      "clés": "https://example.com/user/jdoe/cles"
    },
    "relationships": {
      "avancements": {
        "links": {
          "self": "https://example.com/user/jdoe/relationships/avancements",
          "related": "https://example.com/user/jdoe/avancements"
        }
      },
      "cles": {
        "links": {
          "self": "https://example.com/user/jdoe/relationships/cles",
          "related": "https://example.com/user/jdoe/cles"
        }
      },
      "banques": {
        "links": {
          "self": "https://example.com/user/jdoe/relationships/banques",
          "related": "https://example.com/user/jdoe/banques"
        }
      }
    }
  }
}
