{
  "data": {
    "type": "user",
    "id": "joeinactif",
    "attributes": {
      "username": "joeinactif",
      "date_inscription": 1600828609,
      "courriel": "joeinactif@progressionmail.com",
      "état": "actif",
      "rôle": "normal",
      "préférences": "",
      "prénom": "",
      "nom": "",
      "nom_complet": "",
      "pseudonyme": "joeinactif",
      "biographie": "",
      "occupation": "autre",
      "avatar": ""
    },
    "links": {
      "self": "https://example.com/user/joeinactif",
      "avancements": "https://example.com/user/joeinactif/avancements",
      "banques": "https://example.com/user/joeinactif/banques",
      "clés": "https://example.com/user/joeinactif/cles",
      "tokens": "https://example.com/user/joeinactif/tokens"
    },
    "relationships": {
      "avancements": {
        "links": {
          "self": "https://example.com/user/joeinactif/relationships/avancements",
          "related": "https://example.com/user/joeinactif/avancements"
        }
      },
      "cles": {
        "links": {
          "self": "https://example.com/user/joeinactif/relationships/cles",
          "related": "https://example.com/user/joeinactif/cles"
        }
      },
      "banques": {
        "links": {
          "self": "https://example.com/user/joeinactif/relationships/banques",
          "related": "https://example.com/user/joeinactif/banques"
        }
      }
    }
  }
}
