{
  "data": {
    "type": "user",
    "id": "jane",
    "attributes": {
      "username": "jane",
      "date_inscription": 1600828609,
      "courriel": null,
      "état": "actif",
      "rôle": "normal",
      "préférences": "",
      "prénom": "",
      "nom": "",
      "nom_complet": "",
      "pseudonyme": "jane",
      "biographie": "",
      "occupation": "autre",
      "avatar": ""
    },
    "links": {
      "self": "https://example.com/user/jane",
      "tokens": "https://example.com/user/jane/tokens",
      "avancements": "https://example.com/user/jane/avancements",
      "banques": "https://example.com/user/jane/banques",
      "clés": "https://example.com/user/jane/cles"
    },
    "relationships": {
      "avancements": {
        "links": {
          "self": "https://example.com/user/jane/relationships/avancements",
          "related": "https://example.com/user/jane/avancements"
        }
      },
      "cles": {
        "links": {
          "self": "https://example.com/user/jane/relationships/cles",
          "related": "https://example.com/user/jane/cles"
        }
      },
      "banques": {
        "links": {
          "self": "https://example.com/user/jane/relationships/banques",
          "related": "https://example.com/user/jane/banques"
        }
      }
    }
  }
}
