{
  "data": {
    "type": "user",
    "id": "bob",
    "attributes": {
      "username": "bob",
      "date_inscription": 1590828610,
      "courriel": null,
      "état": "actif",
      "rôle": "normal",
      "préférences": "",
      "prénom": "",
      "nom": "",
      "nom_complet": "",
      "pseudonyme": "bob",
      "biographie": "",
      "occupation": "autre",
      "avatar": ""
    },
    "links": {
      "self": "https://example.com/user/bob",
	  "banques": "https://example.com/user/bob/banques",
      "tokens": "https://example.com/user/bob/tokens",
      "avancements": "https://example.com/user/bob/avancements",
      "clés": "https://example.com/user/bob/cles"
    },
    "relationships": {
      "avancements": {
        "links": {
          "self": "https://example.com/user/bob/relationships/avancements",
          "related": "https://example.com/user/bob/avancements"
        }
      },
      "banques": {
  	    "links": {
  		    "related": "https://example.com/user/bob/banques",
  		    "self": "https://example.com/user/bob/relationships/banques"
  	    }
      },
      "cles": {
        "links": {
          "self": "https://example.com/user/bob/relationships/cles",
          "related": "https://example.com/user/bob/cles"
        }
      }
    }
  }
}
